<?xml version="1.0" encoding="UTF-8" standalone="no"?>
<svg width="65px" height="65px" viewBox="0 0 65 65" version="1.1" xmlns="http://www.w3.org/2000/svg" xmlns:xlink="http://www.w3.org/1999/xlink">
    <!-- Generator: Sketch 39 (31667) - http://www.bohemiancoding.com/sketch -->
    <title>twitter</title>
    <desc>Created with Sketch.</desc>
    <defs></defs>
    <g id="Page-1" stroke="none" stroke-width="1" fill="none" fill-rule="evenodd">
        <g id="Desktop-HD" transform="translate(-452.000000, -771.000000)">
            <g id="social-icons" transform="translate(357.000000, 771.000000)">
                <g id="twitter" transform="translate(95.000000, 0.000000)">
                    <rect id="Rectangle" x="0" y="0" width="65" height="65"></rect>
                    <path d="M63,32.5 C63,15.6553151 49.3446849,2 32.5,2 C15.6553151,2 2,15.6553151 2,32.5 C2,49.3446849 15.6553151,63 32.5,63 C49.3446849,63 63,49.3446849 63,32.5 Z M0,32.5 C0,14.5507456 14.5507456,0 32.5,0 C50.4492544,0 65,14.5507456 65,32.5 C65,50.4492544 50.4492544,65 32.5,65 C14.5507456,65 0,50.4492544 0,32.5 Z" id="Oval" fill="#FFFFFF"></path>
                    <path d="M45.0954473,24.8857399 C46.4101394,24.0560943 47.4189198,22.7405683 47.8923546,21.17346 C46.6614241,21.9435708 45.3012094,22.5005088 43.8499496,22.8020236 C42.6918552,21.4961 41.0366542,20.6818182 39.2048256,20.6818182 C35.6904825,20.6818182 32.8425899,23.6873629 32.8425899,27.3938814 C32.8425899,27.9200918 32.8953961,28.4328588 33.0046503,28.9225802 C27.7167475,28.6421907 23.0279218,25.9727292 19.8868639,21.9090023 C19.338772,22.9038088 19.0255767,24.0560943 19.0255767,25.2851989 C19.0255767,27.6128156 20.1490739,29.6677248 21.8570811,30.8737837 C20.8137036,30.8392151 19.8322368,30.5338595 18.9727705,30.0345357 L18.9727705,30.1171162 C18.9727705,33.3704023 21.1651379,36.0840348 24.0804039,36.6985871 C23.5450583,36.8560661 22.9842202,36.9348056 22.4015312,36.9348056 C21.9918279,36.9348056 21.5912292,36.8944756 21.2051978,36.8157361 C22.0136788,39.4813566 24.3644648,41.4248782 27.1504466,41.4767311 C24.9708255,43.2781374 22.2267245,44.349763 19.245906,44.349763 C18.7324113,44.349763 18.2243793,44.3209558 17.7272727,44.2575801 C20.5442099,46.1607717 23.889209,47.2727273 27.4836719,47.2727273 C39.1920793,47.2727273 45.590733,37.0442727 45.590733,28.1735946 C45.590733,27.8816823 45.5870912,27.5916904 45.5743449,27.3055395 C46.8180217,26.3587449 47.8996382,25.1757318 48.75,23.8294782 C47.6082937,24.3633705 46.381005,24.7244199 45.0954473,24.8857399 Z" id="Shape" fill="#FFFFFF"></path>
                </g>
            </g>
        </g>
    </g>
</svg>